{"failedCount":0,"prefixedPath":"src\/test\/java\/tests\/ConfigTest1.feature","packageQualifiedName":"src.test.java.tests.ConfigTest1","loopIndex":-1,"relativePath":"src\/test\/java\/tests\/ConfigTest1.feature","scenarioResults":[{"sectionIndex":0,"stepResults":[{"result":{"nanos":2977958,"millis":2.977958,"status":"passed"},"step":{"background":true,"line":4,"prefix":"*","index":0,"text":"url baseURL"},"stepLog":"00:55:06.893 Env is :  null \n"},{"result":{"nanos":2555583,"millis":2.555583,"status":"passed"},"step":{"background":true,"line":5,"prefix":"*","index":1,"text":"header Accept = \"application\/json\""}},{"result":{"nanos":3630042,"millis":3.630042,"status":"passed"},"step":{"line":8,"prefix":"Given","index":0,"text":"print name"},"stepLog":"00:55:06.968 [print] test123 \n"}],"executorName":"main","line":7,"name":"Config API Test","description":"","durationMillis":9.163583,"startTime":1674197706729,"failed":false,"refId":"[1:7]","endTime":1674197706970,"exampleIndex":-1},{"sectionIndex":1,"stepResults":[{"result":{"nanos":228625,"millis":0.228625,"status":"passed"},"step":{"background":true,"line":4,"prefix":"*","index":0,"text":"url baseURL"},"stepLog":"00:55:06.980 Env is :  null \n"},{"result":{"nanos":1146167,"millis":1.146167,"status":"passed"},"step":{"background":true,"line":5,"prefix":"*","index":1,"text":"header Accept = \"application\/json\""}},{"result":{"nanos":537666,"millis":0.537666,"status":"passed"},"step":{"line":12,"prefix":"Given","index":0,"text":"path \"\/users?page=2\""}},{"result":{"nanos":843491459,"millis":843.491459,"status":"passed"},"step":{"line":13,"prefix":"When","index":1,"text":"method GET"},"stepLog":"00:55:07.363 request:\n1 > GET https:\/\/reqres.in\/api\/users%3Fpage=2\n1 > Accept: application\/json\n1 > Host: reqres.in\n1 > Connection: Keep-Alive\n1 > User-Agent: Apache-HttpClient\/4.5.14 (Java\/17.0.5)\n1 > Accept-Encoding: gzip,deflate\n\n\n00:55:07.798 response time in milliseconds: 428\n1 < 200\n1 < Date: Fri, 20 Jan 2023 06:55:07 GMT\n1 < Content-Type: application\/json; charset=utf-8\n1 < Transfer-Encoding: chunked\n1 < Connection: keep-alive\n1 < X-Powered-By: Express\n1 < Access-Control-Allow-Origin: *\n1 < Etag: W\/\"2c1-N6Rqerxquq2kgQhL51EiSg4x0R8\"\n1 < Via: 1.1 vegur\n1 < Cache-Control: max-age=14400\n1 < CF-Cache-Status: HIT\n1 < Age: 2703\n1 < Report-To: {\"endpoints\":[{\"url\":\"https:\\\/\\\/a.nel.cloudflare.com\\\/report\\\/v3?s=8LsrvrGrWoxzuB6NI%2FjOgW7zQkB1FP1JcdAP%2BG2JYo4%2BRrF5HFZ9twHMlwMsgqPMKR6%2BoPFvuUuRg2mwaUiCHNXrLdk%2FEaCnJtvvePfdy0x6%2FQdEe0s%2F%2FpJXyA%3D%3D\"}],\"group\":\"cf-nel\",\"max_age\":604800}\n1 < NEL: {\"success_fraction\":0,\"report_to\":\"cf-nel\",\"max_age\":604800}\n1 < Vary: Accept-Encoding\n1 < Server: cloudflare\n1 < CF-RAY: 78c5e719fd1d0bd9-DFW\n{\"page\":1,\"per_page\":6,\"total\":12,\"total_pages\":2,\"data\":[{\"id\":1,\"name\":\"cerulean\",\"year\":2000,\"color\":\"#98B2D1\",\"pantone_value\":\"15-4020\"},{\"id\":2,\"name\":\"fuchsia rose\",\"year\":2001,\"color\":\"#C74375\",\"pantone_value\":\"17-2031\"},{\"id\":3,\"name\":\"true red\",\"year\":2002,\"color\":\"#BF1932\",\"pantone_value\":\"19-1664\"},{\"id\":4,\"name\":\"aqua sky\",\"year\":2003,\"color\":\"#7BC4C4\",\"pantone_value\":\"14-4811\"},{\"id\":5,\"name\":\"tigerlily\",\"year\":2004,\"color\":\"#E2583E\",\"pantone_value\":\"17-1456\"},{\"id\":6,\"name\":\"blue turquoise\",\"year\":2005,\"color\":\"#53B0AE\",\"pantone_value\":\"15-5217\"}],\"support\":{\"url\":\"https:\/\/reqres.in\/#support-heading\",\"text\":\"To keep ReqRes free, contributions towards server costs are appreciated!\"}}\n\n"},{"result":{"nanos":110041,"millis":0.110041,"status":"passed"},"step":{"line":14,"prefix":"Then","index":2,"text":"status 200"}},{"result":{"nanos":16564417,"millis":16.564417,"status":"passed"},"step":{"line":15,"prefix":"And","index":3,"text":"print response"},"stepLog":"00:55:07.847 [print] {\n  \"page\": 1,\n  \"per_page\": 6,\n  \"total\": 12,\n  \"total_pages\": 2,\n  \"data\": [\n    {\n      \"id\": 1,\n      \"name\": \"cerulean\",\n      \"year\": 2000,\n      \"color\": \"#98B2D1\",\n      \"pantone_value\": \"15-4020\"\n    },\n    {\n      \"id\": 2,\n      \"name\": \"fuchsia rose\",\n      \"year\": 2001,\n      \"color\": \"#C74375\",\n      \"pantone_value\": \"17-2031\"\n    },\n    {\n      \"id\": 3,\n      \"name\": \"true red\",\n      \"year\": 2002,\n      \"color\": \"#BF1932\",\n      \"pantone_value\": \"19-1664\"\n    },\n    {\n      \"id\": 4,\n      \"name\": \"aqua sky\",\n      \"year\": 2003,\n      \"color\": \"#7BC4C4\",\n      \"pantone_value\": \"14-4811\"\n    },\n    {\n      \"id\": 5,\n      \"name\": \"tigerlily\",\n      \"year\": 2004,\n      \"color\": \"#E2583E\",\n      \"pantone_value\": \"17-1456\"\n    },\n    {\n      \"id\": 6,\n      \"name\": \"blue turquoise\",\n      \"year\": 2005,\n      \"color\": \"#53B0AE\",\n      \"pantone_value\": \"15-5217\"\n    }\n  ],\n  \"support\": {\n    \"url\": \"https:\/\/reqres.in\/#support-heading\",\n    \"text\": \"To keep ReqRes free, contributions towards server costs are appreciated!\"\n  }\n}\n \n"}],"executorName":"main","line":11,"name":"Get API","description":"","durationMillis":862.078375,"startTime":1674197706979,"failed":false,"refId":"[2:11]","endTime":1674197707847,"exampleIndex":-1}],"callDepth":0,"name":"Config test","description":"","resultDate":"2023-01-20 12:55:07 a. m.","durationMillis":871.241958,"passedCount":2}